examples/unpacked/board_Arduino_Uno/atmega328p/rc_receiver/controle.vcd
$version Generated by PICSimLab $end
$timescale 62.5ns $end
$scope module logic $end
$var wire 1 !  1-PGC $end
$var wire 1 $  2-(null) $end
$var wire 1 % 3-(null) $end
$var wire 1 &  4-(null) $end
$var wire 1 [  5-(null) $end
$var wire 1 (  6-(null) $end
$var wire 1 )  7-(null) $end
$var wire 1 ]  8-(null) $end
$upscope $end
$enddefinitions $end
$dumpvars
x!
x$
x%
x&
x[
x(
x)
x[
$end
#1
0!
#9863235
1!
#9878009
0!
#9885276
1!
#9900043
0!
#9907401
1!
#9922158
0!
#9936716
1!
#9944178
0!
#9951445
1!
#9966191
0!
#9973549
1!
#9988285
0!
#10002843
1!
#10010284
0!
#10017551
1!
#10032276
0!
#10039634
1!
#10054349
0!
#10068907
1!
#10076327
0!
#10083685
1!
#10098295
0!
#10112853
1!
#10120350
0!
#10127617
1!
#10142307
0!
#10149665
1!
#10164254
0!
#10178812
1!
#10186288
0!
#10193555
1!
#10208224
0!
#10215582
1!
#10230153
0!
#10237511
1!
#10252166
0!
#10259433
1!
#10274078
0!
#10288636
1!
#10295986
0!
#10303344
1!
#10317975
0!
#10332533
1!
#10339869
0!
#10347227
1!
#10361844
0!
#10376311
1!
#10383724
0!
#10390991
1!
#10405594
0!
#10420152
1!
#10427539
0!
#10594121
1!
#10601621
0!
#10608979
1!
#10623753
0!
#10631020
1!
#10645787
0!
#10653054
1!
#10667811
0!
#10682369
1!
#10689922
0!
#10697189
1!
#10711935
0!
#10719202
1!
#10733938
0!
#10748496
1!
#10756028
0!
#10763295
1!
#10778020
0!
#10785287
1!
#10800002
0!
#10814560
1!
#10822071
0!
#10829338
1!
#10844039
0!
#10858597
1!
#10866003
0!
#10873361
1!
#10888051
0!
#10895318
1!
#10909998
0!
#10924556
1!
#10931941
0!
#10939299
1!
#10953968
0!
#10961235
1!
#10975897
0!
#10983164
1!
#10997819
0!
#11005177
1!
#11019822
0!
#11034380
1!
#11041730
0!
#11048997
1!
#11063628
0!
#11078186
1!
#11085613
0!
#11092880
1!
#11107497
0!
#11122055
1!
#11129377
0!
#11136735
1!
#11151338
0!
#11165896
1!
#11173192
0!
#11339773
1!
#11347364
0!
#11354631
1!
#11369405
0!
#11376763
1!
#11391439
0!
#11398797
1!
#11413554
0!
#11428112
1!
#11435574
0!
#11442932
1!
#11457587
0!
#11464945
1!
#11479681
0!
#11494239
1!
#11501680
0!
#11509038
1!
#11523672
0!
#11531030
1!
#11545745
0!
#11560303
1!
#11567723
0!
#11575081
1!
#11589782
0!
#11604249
1!
#11611746
0!
#11619013
1!
#11633703
0!
#11641061
1!
#11655741
0!
#11670208
1!
#11677684
0!
#11684951
1!
#11699620
0!
#11706978
1!
#11721640
0!
#11728907
1!
#11743562
0!
#11750829
1!
#11765474
0!
#11780032
1!
#11787473
0!
#11794740
1!
#11809371
0!
#11823929
1!
#11831265
0!
#11838623
1!
#11853240
0!
#11867803
1!
#11875125
0!
#11882392
1!
#11896995
0!
#11911553
1!
#11918940
0!
#12085517
1!
#12093017
0!
#12100375
1!
#12115149
0!
#12122416
1!
#12137183
0!
#12144450
1!
#12159207
0!
#12173765
1!
#12181318
0!
#12188585
1!
#12203331
0!
#12210598
1!
#12225334
0!
#12239892
1!
#12247424
0!
#12254691
1!
#12269416
0!
#12276774
1!
#12291398
0!
#12305956
1!
#12313467
0!
#12320734
1!
#12335435
0!
#12349993
1!
#12357399
0!
#12364757
1!
#12379447
0!
#12386714
1!
#12401394
0!
#12415952
1!
#12423337
0!
#12430695
1!
#12445364
0!
#12452631
1!
#12467293
0!
#12474651
1!
#12489215
0!
#12496573
1!
#12511218
0!
#12525776
1!
#12533126
0!
#12540489
1!
#12555120
0!
#12569587
1!
#12577014
0!
#12584281
1!
#12598898
0!
#12613456
1!
#12620869
0!
#12628136
1!
#12642739
0!
#12657297
1!
#12664593
0!
#12831169
1!
#12838760
0!
#12846027
1!
#12860801
0!
#12868159
1!
#12882926
0!
#12890193
1!
#12904950
0!
#12919508
1!
#12926970
0!
#12934328
1!
#12949074
0!
#12956341
1!
#12971077
0!
#12985635
1!
#12993076
0!
#13000434
1!
#13015159
0!
#13022426
1!
#13037141
0!
#13051699
1!
#13059119
0!
#13066477
1!
#13081178
0!
#13095736
1!
#13103142
0!
#13110409
1!
#13125099
0!
#13132457
1!
#13147137
0!
#13161695
1!
#13169080
0!
#13176347
1!
#13191016
0!
#13198374
1!
#13213036
0!
#13220303
1!
#13234963
0!
#13242230
1!
#13256875
0!
#13271433
1!
#13278874
0!
#13286141
1!
#13300772
0!
#13315330
1!
#13322666
0!
#13330024
1!
#13344641
0!
#13359199
1!
#13366521
0!
#13373879
1!
#13388391
0!
#13402949
1!
#13410336
0!
#13576913
1!
#13584413
0!
#13591771
1!
#13606545
0!
#13613812
1!
#13628579
0!
#13635937
1!
#13650603
0!
#13665161
1!
#13672714
0!
#13679981
1!
#13694727
0!
#13702085
1!
#13716730
0!
#13731288
1!
#13738820
0!
#13746087
1!
#13760812
0!
#13768170
1!
#13782885
0!
#13797352
1!
#13804863
0!
#13812130
1!
#13826831
0!
#13841389
1!
#13848886
0!
#13856153
1!
#13870843
0!
#13878110
1!
#13892790
0!
#13907348
1!
#13914829
0!
#13922096
1!
#13936765
0!
#13944032
1!
#13958694
0!
#13966052
1!
#13980707
0!
#13987974
1!
#14002619
0!
#14017177
1!
#14024527
0!
#14031885
1!
#14046516
0!
#14061074
1!
#14068410
0!
#14075677
1!
#14090294
0!
#14104852
1!
#14112265
0!
#14119532
1!
#14134135
0!
#14148693
1!
#14155989
0!
#14322566
1!
#14330157
0!
#14337424
1!
#14352198
0!
#14359556
1!
#14374323
0!
#14381590
1!
#14396347
0!
#14410904
1!
#14418366
0!
#14425724
1!
#14440470
0!
#14447737
1!
#14462473
0!
#14477031
1!
#14484472
0!
#14491830
1!
#14506555
0!
#14513822
1!
#14528537
0!
#14543095
1!
#14550515
0!
#14557873
1!
#14572574
0!
#14587137
1!
#14594543
0!
#14601901
1!
#14616500
0!
#14623858
1!
#14638538
0!
#14653096
1!
#14660481
0!
#14667839
1!
#14682417
0!
#14689775
1!
#14704437
0!
#14711704
1!
#14726359
0!
#14733717
1!
#14748362
0!
#14762829
1!
#14770270
0!
#14777537
1!
#14792168
0!
#14806726
1!
#14814153
0!
#14821420
1!
#14836037
0!
#14850595
1!
#14857917
0!
#14865275
1!
#14879878
0!
#14894345
1!
#14901732
0!
#15068309
1!
#15075900
0!
#15083167
1!
#15097941
0!
#15105208
1!
#15119975
0!
#15127333
1!
#15142090
0!
#15156557
1!
#15164110
0!
#15171377
1!
#15186123
0!
#15193481
1!
#15208217
0!
#15222684
1!
#15230216
0!
#15237483
1!
#15252208
0!
#15259566
1!
#15274286
0!
#15288844
1!
#15296264
0!
#15303531
1!
#15318232
0!
#15332790
1!
#15340287
0!
#15347554
1!
#15362244
0!
#15369511
1!
#15384191
0!
#15398749
1!
#15406225
0!
#15413492
1!
#15428161
0!
#15435428
1!
#15450090
0!
#15457448
1!
#15472103
0!
#15479370
1!
#15494015
0!
#15508573
1!
#15515923
0!
#15523281
1!
#15537912
0!
#15552470
1!
#15559806
0!
#15567164
1!
#15581690
0!
#15596248
1!
#15603661
0!
#15610928
1!
#15625531
0!
#15640089
1!
#15647385
0!
#15814053
1!
#15821553
0!
#15828911
1!
#15843594
0!
#15850952
1!
#15865719
0!
#15872986
1!
#15887743
0!
#15902301
1!
#15909763
0!
#15917121
1!
#15931867
0!
#15939134
1!
#15953870
0!
#15968433
1!
#15975965
0!
#15983232
1!
#15997957
0!
#16005223
1!
#16019938
0!
#16034496
1!
#16042007
0!
#16049274
1!
#16063975
0!
#16078533
1!
#16085939
0!
#16093297
1!
#16107987
0!
#16115254
1!
#16129934
0!
#16144492
1!
#16151877
0!
#16159235
1!
#16173904
0!
#16181171
1!
#16195833
0!
#16203100
1!
#16217755
0!
#16225113
1!
#16239758
0!
#16254316
1!
#16261666
0!
#16268933
1!
#16283564
0!
#16298122
1!
#16305549
0!
#16312816
1!
#16327433
0!
#16341991
1!
#16349313
0!
#16356671
1!
#16371274
0!
#16385832
1!
#16393128
0!
#16559705
1!
#16567296
0!
#16574563
1!
#16589337
0!
#16596604
1!
#16611371
0!
#16618729
1!
#16633491
0!
#16648049
1!
#16655511
0!
#16662778
1!
#16677524
0!
#16684882
1!
#16699618
0!
#16714176
1!
#16721617
0!
#16728975
1!
#16743609
0!
#16750967
1!
#16765682
0!
#16780240
1!
#16787660
0!
#16795018
1!
#16809628
0!
#16824186
1!
#16831683
0!
#16838950
1!
#16853640
0!
#16860998
1!
#16875587
0!
#16890145
1!
#16897621
0!
#16904888
1!
#16919557
0!
#16926915
1!
#16941486
0!
#16948844
1!
#16963499
0!
#16970766
1!
#16985411
0!
#16999969
1!
#17007410
0!
#17014677
1!
#17029308
0!
#17043866
1!
#17051202
0!
#17058560
1!
#17073177
0!
#17087644
1!
#17095057
0!
#17102324
1!
#17116927
0!
#17131485
1!
#17138872
0!
#17305449
1!
#17312735
0!
